Selecting variables
…
dummied <- rec %>% step_normalize(bill_length_mm, bill_depth_mm, 
                                  flipper_length_mm) # or
dummied <- rec %>% step_normalize(all_numeric(), - body_mass_g) # or
dummied <- rec %>% step_normalize(all_numeric_predictors()) # recommended

Whenever possible, it is recommended to use the more specific
*_predictors() variants to avoid accidentally selecting the
outcomes.

rec %>%
  step_dummy(sex) %>%
  prep() %>%
  juice()
#> Warning: ! There are new levels in a factor: NA
#> # A tibble: 344 × 7
#>    species island    bill_length_mm bill_depth_mm flipper_length_mm body_mass_g
#>    <fct>   <fct>              <dbl>         <dbl>             <int>       <int>
#>  1 Adelie  Torgersen           39.1          18.7               181        3750
#>  2 Adelie  Torgersen           39.5          17.4               186        3800
#>  3 Adelie  Torgersen           40.3          18                 195        3250
#>  4 Adelie  Torgersen           NA            NA                  NA          NA
#>  5 Adelie  Torgersen           36.7          19.3               193        3450
#>  6 Adelie  Torgersen           39.3          20.6               190        3650
#>  7 Adelie  Torgersen           38.9          17.8               181        3625
#>  8 Adelie  Torgersen           39.2          19.6               195        4675
#>  9 Adelie  Torgersen           34.1          18.1               193        3475
#> 10 Adelie  Torgersen           42            20.2               190        4250
#> # ℹ 334 more rows
#> # ℹ 1 more variable: sex_X1 <dbl>

Using the last definition:

dummied <- prep(dummied, training = penguins)
with_dummy <- bake(dummied, new_data = penguins)
with_dummy
#> # A tibble: 344 × 7
#>    species island    bill_length_mm bill_depth_mm flipper_length_mm sex   
#>    <fct>   <fct>              <dbl>         <dbl>             <dbl> <fct> 
#>  1 Adelie  Torgersen         -0.883         0.784            -1.42  male  
#>  2 Adelie  Torgersen         -0.810         0.126            -1.06  female
#>  3 Adelie  Torgersen         -0.663         0.430            -0.421 female
#>  4 Adelie  Torgersen         NA            NA                NA     <NA>  
#>  5 Adelie  Torgersen         -1.32          1.09             -0.563 female
#>  6 Adelie  Torgersen         -0.847         1.75             -0.776 male  
#>  7 Adelie  Torgersen         -0.920         0.329            -1.42  female
#>  8 Adelie  Torgersen         -0.865         1.24             -0.421 male  
#>  9 Adelie  Torgersen         -1.80          0.480            -0.563 <NA>  
#> 10 Adelie  Torgersen         -0.352         1.54             -0.776 <NA>  
#> # ℹ 334 more rows
#> # ℹ 1 more variable: body_mass_g <int>
…
